<?xml version="1.0" encoding="UTF-8"?>
<svg width="634px" height="217px" viewBox="0 0 634 217" version="1.1" xmlns="http://www.w3.org/2000/svg" xmlns:xlink="http://www.w3.org/1999/xlink">
    <!-- Generator: Sketch 55.2 (78181) - https://sketchapp.com -->
    <title>Lubo Pink</title>
    <desc>Created with Sketch.</desc>
    <defs>
        <polygon id="path-1" points="1.43243243 0.716216216 2.14864865 0.716216216 2.14864865 1.43243243 1.43243243 1.43243243"></polygon>
        <polygon id="path-3" points="0.964886486 0.639294595 173.638027 0.639294595 173.638027 161.864865 0.964886486 161.864865"></polygon>
        <polygon id="path-5" points="1.43243243 216.297297 634.88127 216.297297 634.88127 0.375297297 1.43243243 0.375297297"></polygon>
    </defs>
    <g id="Logo" stroke="none" stroke-width="1" fill="none" fill-rule="evenodd">
        <g id="Lubo-Pink" transform="translate(-1.000000, 0.000000)">
            <polygon id="Fill-1" fill="#ED3093" points="1.43243243 214.538432 58.6724324 214.538432 58.6724324 2.43386486 1.43243243 2.43386486"></polygon>
            <g id="Group-13" transform="translate(0.000000, 0.057135)">
                <g id="Group-4" transform="translate(0.000000, 214.864865)">
                    <mask id="mask-2" fill="white">
                        <use xlink:href="#path-1"></use>
                    </mask>
                    <g id="Clip-3"></g>
                    <path d="" id="Fill-2" fill="#000000" mask="url(#mask-2)"></path>
                </g>
                <g id="Group-7" transform="translate(461.243243, 54.432432)">
                    <mask id="mask-4" fill="white">
                        <use xlink:href="#path-3"></use>
                    </mask>
                    <g id="Clip-6"></g>
                    <path d="M114.808886,81.0932946 C114.808886,64.2378622 104.950886,51.2012946 87.1428865,51.2012946 C69.6528865,51.2012946 59.7948865,64.2378622 59.7948865,81.0932946 C59.7948865,98.2652946 69.6528865,111.303295 87.1428865,111.303295 C104.950886,111.303295 114.808886,98.2652946 114.808886,81.0932946 M0.964886486,81.0932946 C0.964886486,38.1632946 32.7648865,0.639294595 87.1428865,0.639294595 C141.838886,0.639294595 173.638886,38.1632946 173.638886,81.0932946 C173.638886,124.023295 141.838886,161.865295 87.1428865,161.865295 C32.7648865,161.865295 0.964886486,124.023295 0.964886486,81.0932946" id="Fill-5" fill="#ED3093" mask="url(#mask-4)"></path>
                </g>
                <mask id="mask-6" fill="white">
                    <use xlink:href="#path-5"></use>
                </mask>
                <g id="Clip-9"></g>
                <polygon id="Fill-8" fill="#ED3093" mask="url(#mask-6)" points="274.900973 143.31773 332.140973 143.31773 332.140973 0.37672973 274.900973 0.37672973"></polygon>
                <path d="M388.692403,135.1341 C388.692403,118.278668 378.834403,105.2421 361.026403,105.2421 C343.536403,105.2421 333.678403,118.278668 333.678403,135.1341 C333.678403,152.304668 343.536403,165.3441 361.026403,165.3441 C378.834403,165.3441 388.692403,152.304668 388.692403,135.1341 M274.848403,135.1341 C274.848403,92.2026676 306.648403,54.6801 361.026403,54.6801 C415.722403,54.6801 447.522403,92.2026676 447.522403,135.1341 C447.522403,178.0641 415.722403,215.9061 361.026403,215.9061 C306.648403,215.9061 274.848403,178.0641 274.848403,135.1341" id="Fill-10" fill="#ED3093" mask="url(#mask-6)"></path>
            </g>
            <g id="U" transform="translate(87.917647, 63.664706)" fill="#ED3093" fill-rule="nonzero" stroke="#ED3093">
                <path d="M0.692999135,0.714236716 L0.692999135,72.9197135 C0.692999135,93.4874782 8.49075699,112.048231 24.0862727,128.601973 C24.3375143,128.868651 24.5953242,129.128061 24.8422366,129.395204 C37.4252461,143.00923 55.6445006,150.559877 79.5,152.047146 L79.5,97.1488638 C73.4351232,96.6141956 68.3196727,94.9267985 64.1536483,92.0866725 C59.9876239,89.2465465 57.5914071,84.7793354 56.9649978,78.6850392 L56.9649978,0.714236716 L0.692999135,0.714236716 Z" id="Path"></path>
                <path d="M80.1929991,0.714236716 L80.1929991,72.9197135 C80.1929991,93.4874782 87.990757,112.048231 103.586273,128.601973 C103.837514,128.868651 104.095324,129.128061 104.342237,129.395204 C116.925246,143.00923 135.144501,150.559877 159,152.047146 L159,97.1488638 C152.935123,96.6141956 147.819673,94.9267985 143.653648,92.0866725 C139.487624,89.2465465 137.091407,84.7793354 136.464998,78.6850392 L136.464998,0.714236716 L80.1929991,0.714236716 Z" id="Path" transform="translate(119.596500, 76.380691) scale(-1, 1) translate(-119.596500, -76.380691) "></path>
            </g>
        </g>
    </g>
</svg>