<?xml version="1.0" encoding="UTF-8"?>
<svg width="14px" height="14px" viewBox="0 0 14 14" version="1.1" xmlns="http://www.w3.org/2000/svg" xmlns:xlink="http://www.w3.org/1999/xlink">
    <!-- Generator: Sketch 55.2 (78181) - https://sketchapp.com -->
    <title>Oval 3</title>
    <desc>Created with Sketch.</desc>
    <g id="Perfil-Web-User" stroke="none" stroke-width="1" fill="none" fill-rule="evenodd">
        <g id="Detalle-viaje" transform="translate(-522.000000, -260.000000)" fill="#870080">
            <g id="Map">
                <g transform="translate(319.000000, 142.000000)">
                    <g transform="translate(0.000000, -217.000000)" id="User">
                        <g transform="translate(203.649635, 335.183607)">
                            <ellipse id="Oval-3" cx="6.56934307" cy="6.55081967" rx="6.56934307" ry="6.55081967"></ellipse>
                        </g>
                    </g>
                </g>
            </g>
        </g>
    </g>
</svg>