<?xml version="1.0" encoding="UTF-8"?>
<svg width="11px" height="11px" viewBox="0 0 11 11" version="1.1" xmlns="http://www.w3.org/2000/svg" xmlns:xlink="http://www.w3.org/1999/xlink">
    <!-- Generator: Sketch 55.2 (78181) - https://sketchapp.com -->
    <title>pickup_location</title>
    <desc>Created with Sketch.</desc>
    <g id="Perfil-Web-User" stroke="none" stroke-width="1" fill="none" fill-rule="evenodd">
        <g id="Detalle-viaje" transform="translate(-321.000000, -476.000000)" fill="#ED3093">
            <g id="Ruta">
                <g transform="translate(319.000000, 473.000000)">
                    <g transform="translate(0.000000, 3.000000)" id="pickup_location">
                        <path d="M7.5,11 C10.5375661,11 13,8.53756612 13,5.5 C13,2.46243388 10.5375661,0 7.5,0 C4.46243388,0 2,2.46243388 2,5.5 C2,8.53756612 4.46243388,11 7.5,11 Z"></path>
                    </g>
                </g>
            </g>
        </g>
    </g>
</svg>