<?xml version="1.0" encoding="UTF-8"?>
<svg width="32px" height="20px" viewBox="0 0 32 20" version="1.1" xmlns="http://www.w3.org/2000/svg" xmlns:xlink="http://www.w3.org/1999/xlink">
    <!-- Generator: Sketch 55.2 (78181) - https://sketchapp.com -->
    <title>Group</title>
    <desc>Created with Sketch.</desc>
    <g id="Perfil-Web-User" stroke="none" stroke-width="1" fill="none" fill-rule="evenodd">
        <g id="Mis-viajes" transform="translate(-814.000000, -141.000000)">
            <g id="Viaje-expandido">
                <g transform="translate(354.000000, 95.000000)">
                    <g id="Maestro-dark" transform="translate(460.000000, 46.000000)">
                        <g id="Group">
                            <rect id="Rectangle" fill="#D9D8DA" x="0" y="0" width="32" height="20" rx="4"></rect>
                            <g id="logo-mastercard" transform="translate(6.000000, 2.000000)" fill-rule="nonzero">
                                <g id="shapes">
                                    <path d="M3.65,15.1833333 L3.65,14.1833333 C3.65,13.8 3.41666667,13.55 3.01666667,13.55 C2.81666667,13.55 2.6,13.6166667 2.45,13.8333333 C2.33333333,13.65 2.16666667,13.55 1.91666667,13.55 C1.75,13.55 1.58333333,13.6 1.45,13.7833333 L1.45,13.5833333 L1.1,13.5833333 L1.1,15.1833333 L1.45,15.1833333 L1.45,14.3 C1.45,14.0166667 1.6,13.8833333 1.83333333,13.8833333 C2.06666667,13.8833333 2.18333333,14.0333333 2.18333333,14.3 L2.18333333,15.1833333 L2.53333333,15.1833333 L2.53333333,14.3 C2.53333333,14.0166667 2.7,13.8833333 2.91666667,13.8833333 C3.15,13.8833333 3.26666667,14.0333333 3.26666667,14.3 L3.26666667,15.1833333 L3.65,15.1833333 Z M8.83333333,13.5833333 L8.26666667,13.5833333 L8.26666667,13.1 L7.91666667,13.1 L7.91666667,13.5833333 L7.6,13.5833333 L7.6,13.9 L7.91666667,13.9 L7.91666667,14.6333333 C7.91666667,15 8.06666667,15.2166667 8.46666667,15.2166667 C8.61666667,15.2166667 8.78333333,15.1666667 8.9,15.1 L8.8,14.8 C8.7,14.8666667 8.58333333,14.8833333 8.5,14.8833333 C8.33333333,14.8833333 8.26666667,14.7833333 8.26666667,14.6166667 L8.26666667,13.9 L8.83333333,13.9 L8.83333333,13.5833333 Z M11.8,13.55 C11.6,13.55 11.4666667,13.65 11.3833333,13.7833333 L11.3833333,13.5833333 L11.0333333,13.5833333 L11.0333333,15.1833333 L11.3833333,15.1833333 L11.3833333,14.2833333 C11.3833333,14.0166667 11.5,13.8666667 11.7166667,13.8666667 C11.7833333,13.8666667 11.8666667,13.8833333 11.9333333,13.9 L12.0333333,13.5666667 C11.9666667,13.55 11.8666667,13.55 11.8,13.55 L11.8,13.55 Z M7.31666667,13.7166667 C7.15,13.6 6.91666667,13.55 6.66666667,13.55 C6.26666667,13.55 6,13.75 6,14.0666667 C6,14.3333333 6.2,14.4833333 6.55,14.5333333 L6.71666667,14.55 C6.9,14.5833333 7,14.6333333 7,14.7166667 C7,14.8333333 6.86666667,14.9166667 6.63333333,14.9166667 C6.4,14.9166667 6.21666667,14.8333333 6.1,14.75 L5.93333333,15.0166667 C6.11666667,15.15 6.36666667,15.2166667 6.61666667,15.2166667 C7.08333333,15.2166667 7.35,15 7.35,14.7 C7.35,14.4166667 7.13333333,14.2666667 6.8,14.2166667 L6.63333333,14.2 C6.48333333,14.1833333 6.36666667,14.15 6.36666667,14.05 C6.36666667,13.9333333 6.48333333,13.8666667 6.66666667,13.8666667 C6.86666667,13.8666667 7.06666667,13.95 7.16666667,14 L7.31666667,13.7166667 Z M16.6166667,13.55 C16.4166667,13.55 16.2833333,13.65 16.2,13.7833333 L16.2,13.5833333 L15.85,13.5833333 L15.85,15.1833333 L16.2,15.1833333 L16.2,14.2833333 C16.2,14.0166667 16.3166667,13.8666667 16.5333333,13.8666667 C16.6,13.8666667 16.6833333,13.8833333 16.75,13.9 L16.85,13.5666667 C16.7833333,13.55 16.6833333,13.55 16.6166667,13.55 L16.6166667,13.55 Z M12.15,14.3833333 C12.15,14.8666667 12.4833333,15.2166667 13,15.2166667 C13.2333333,15.2166667 13.4,15.1666667 13.5666667,15.0333333 L13.4,14.75 C13.2666667,14.85 13.1333333,14.9 12.9833333,14.9 C12.7,14.9 12.5,14.7 12.5,14.3833333 C12.5,14.0833333 12.7,13.8833333 12.9833333,13.8666667 C13.1333333,13.8666667 13.2666667,13.9166667 13.4,14.0166667 L13.5666667,13.7333333 C13.4,13.6 13.2333333,13.55 13,13.55 C12.4833333,13.55 12.15,13.9 12.15,14.3833333 L12.15,14.3833333 Z M15.3833333,14.3833333 L15.3833333,13.5833333 L15.0333333,13.5833333 L15.0333333,13.7833333 C14.9166667,13.6333333 14.75,13.55 14.5333333,13.55 C14.0833333,13.55 13.7333333,13.9 13.7333333,14.3833333 C13.7333333,14.8666667 14.0833333,15.2166667 14.5333333,15.2166667 C14.7666667,15.2166667 14.9333333,15.1333333 15.0333333,14.9833333 L15.0333333,15.1833333 L15.3833333,15.1833333 L15.3833333,14.3833333 Z M14.1,14.3833333 C14.1,14.1 14.2833333,13.8666667 14.5833333,13.8666667 C14.8666667,13.8666667 15.0666667,14.0833333 15.0666667,14.3833333 C15.0666667,14.6666667 14.8666667,14.9 14.5833333,14.9 C14.2833333,14.8833333 14.1,14.6666667 14.1,14.3833333 L14.1,14.3833333 Z M9.91666667,13.55 C9.45,13.55 9.11666667,13.8833333 9.11666667,14.3833333 C9.11666667,14.8833333 9.45,15.2166667 9.93333333,15.2166667 C10.1666667,15.2166667 10.4,15.15 10.5833333,15 L10.4166667,14.75 C10.2833333,14.85 10.1166667,14.9166667 9.95,14.9166667 C9.73333333,14.9166667 9.51666667,14.8166667 9.46666667,14.5333333 L10.65,14.5333333 C10.65,14.4833333 10.65,14.45 10.65,14.4 C10.6666667,13.8833333 10.3666667,13.55 9.91666667,13.55 L9.91666667,13.55 Z M9.91666667,13.85 C10.1333333,13.85 10.2833333,13.9833333 10.3166667,14.2333333 L9.48333333,14.2333333 C9.51666667,14.0166667 9.66666667,13.85 9.91666667,13.85 L9.91666667,13.85 Z M18.6,14.3833333 L18.6,12.95 L18.25,12.95 L18.25,13.7833333 C18.1333333,13.6333333 17.9666667,13.55 17.75,13.55 C17.3,13.55 16.95,13.9 16.95,14.3833333 C16.95,14.8666667 17.3,15.2166667 17.75,15.2166667 C17.9833333,15.2166667 18.15,15.1333333 18.25,14.9833333 L18.25,15.1833333 L18.6,15.1833333 L18.6,14.3833333 Z M17.3166667,14.3833333 C17.3166667,14.1 17.5,13.8666667 17.8,13.8666667 C18.0833333,13.8666667 18.2833333,14.0833333 18.2833333,14.3833333 C18.2833333,14.6666667 18.0833333,14.9 17.8,14.9 C17.5,14.8833333 17.3166667,14.6666667 17.3166667,14.3833333 L17.3166667,14.3833333 Z M5.61666667,14.3833333 L5.61666667,13.5833333 L5.26666667,13.5833333 L5.26666667,13.7833333 C5.15,13.6333333 4.98333333,13.55 4.76666667,13.55 C4.31666667,13.55 3.96666667,13.9 3.96666667,14.3833333 C3.96666667,14.8666667 4.31666667,15.2166667 4.76666667,15.2166667 C5,15.2166667 5.16666667,15.1333333 5.26666667,14.9833333 L5.26666667,15.1833333 L5.61666667,15.1833333 L5.61666667,14.3833333 Z M4.31666667,14.3833333 C4.31666667,14.1 4.5,13.8666667 4.8,13.8666667 C5.08333333,13.8666667 5.28333333,14.0833333 5.28333333,14.3833333 C5.28333333,14.6666667 5.08333333,14.9 4.8,14.9 C4.5,14.8833333 4.31666667,14.6666667 4.31666667,14.3833333 Z" id="mastercard" fill="#000000"></path>
                                    <rect id="middle" fill="#FF5F00" x="7.2" y="1.43333333" width="5.25" height="9.43333333"></rect>
                                    <path d="M7.53333333,6.15 C7.53333333,4.23333333 8.43333333,2.53333333 9.81666667,1.43333333 C8.8,0.633333333 7.51666667,0.15 6.11666667,0.15 C2.8,0.15 0.116666667,2.83333333 0.116666667,6.15 C0.116666667,9.46666667 2.8,12.15 6.11666667,12.15 C7.51666667,12.15 8.8,11.6666667 9.81666667,10.8666667 C8.43333333,9.78333333 7.53333333,8.06666667 7.53333333,6.15 Z" id="red" fill="#EB001B"></path>
                                    <path d="M19.5333333,6.15 C19.5333333,9.46666667 16.85,12.15 13.5333333,12.15 C12.1333333,12.15 10.85,11.6666667 9.83333333,10.8666667 C11.2333333,9.76666667 12.1166667,8.06666667 12.1166667,6.15 C12.1166667,4.23333333 11.2166667,2.53333333 9.83333333,1.43333333 C10.85,0.633333333 12.1333333,0.15 13.5333333,0.15 C16.85,0.15 19.5333333,2.85 19.5333333,6.15 Z" id="orange" fill="#F79E1B"></path>
                                </g>
                            </g>
                        </g>
                    </g>
                </g>
            </g>
        </g>
    </g>
</svg>